%YAML 1.1
%TAG !u! tag:unity3d.com,2011:
--- !u!74 &7400000
AnimationClip:
  m_ObjectHideFlags: 0
  m_CorrespondingSourceObject: {fileID: 0}
  m_PrefabInstance: {fileID: 0}
  m_PrefabAsset: {fileID: 0}
  m_Name: Attack
  serializedVersion: 6
  m_Legacy: 0
  m_Compressed: 0
  m_UseHighQualityCurve: 1
  m_RotationCurves: []
  m_CompressedRotationCurves: []
  m_EulerCurves: []
  m_PositionCurves: []
  m_ScaleCurves: []
  m_FloatCurves: []
  m_PPtrCurves:
  - curve:
    - time: 0
      value: {fileID: -6816575301262550212, guid: 91b25275eae7e0d42a0f271880e21b72, type: 3}
    - time: 0.06666667
      value: {fileID: -9062293500214325151, guid: 91b25275eae7e0d42a0f271880e21b72, type: 3}
    - time: 0.15
      value: {fileID: -4725635227330987797, guid: 91b25275eae7e0d42a0f271880e21b72, type: 3}
    - time: 0.21666667
      value: {fileID: 3755937215895814661, guid: 91b25275eae7e0d42a0f271880e21b72, type: 3}
    - time: 0.28333333
      value: {fileID: -5042048495948387297, guid: 91b25275eae7e0d42a0f271880e21b72, type: 3}
    - time: 0.35
      value: {fileID: 7682661228604053961, guid: 91b25275eae7e0d42a0f271880e21b72, type: 3}
    - time: 0.43333334
      value: {fileID: 7966227895991900527, guid: 91b25275eae7e0d42a0f271880e21b72, type: 3}
    - time: 0.5
      value: {fileID: 6065602599337010669, guid: 91b25275eae7e0d42a0f271880e21b72, type: 3}
    attribute: m_Sprite
    path: 
    classID: 212
    script: {fileID: 0}
  m_SampleRate: 60
  m_WrapMode: 0
  m_Bounds:
    m_Center: {x: 0, y: 0, z: 0}
    m_Extent: {x: 0, y: 0, z: 0}
  m_ClipBindingConstant:
    genericBindings:
    - serializedVersion: 2
      path: 0
      attribute: 0
      script: {fileID: 0}
      typeID: 212
      customType: 23
      isPPtrCurve: 1
    pptrCurveMapping:
    - {fileID: -6816575301262550212, guid: 91b25275eae7e0d42a0f271880e21b72, type: 3}
    - {fileID: -9062293500214325151, guid: 91b25275eae7e0d42a0f271880e21b72, type: 3}
    - {fileID: -4725635227330987797, guid: 91b25275eae7e0d42a0f271880e21b72, type: 3}
    - {fileID: 3755937215895814661, guid: 91b25275eae7e0d42a0f271880e21b72, type: 3}
    - {fileID: -5042048495948387297, guid: 91b25275eae7e0d42a0f271880e21b72, type: 3}
    - {fileID: 7682661228604053961, guid: 91b25275eae7e0d42a0f271880e21b72, type: 3}
    - {fileID: 7966227895991900527, guid: 91b25275eae7e0d42a0f271880e21b72, type: 3}
    - {fileID: 6065602599337010669, guid: 91b25275eae7e0d42a0f271880e21b72, type: 3}
  m_AnimationClipSettings:
    serializedVersion: 2
    m_AdditiveReferencePoseClip: {fileID: 0}
    m_AdditiveReferencePoseTime: 0
    m_StartTime: 0
    m_StopTime: 0.51666665
    m_OrientationOffsetY: 0
    m_Level: 0
    m_CycleOffset: 0
    m_HasAdditiveReferencePose: 0
    m_LoopTime: 0
    m_LoopBlend: 0
    m_LoopBlendOrientation: 0
    m_LoopBlendPositionY: 0
    m_LoopBlendPositionXZ: 0
    m_KeepOriginalOrientation: 0
    m_KeepOriginalPositionY: 1
    m_KeepOriginalPositionXZ: 0
    m_HeightFromFeet: 0
    m_Mirror: 0
  m_EditorCurves: []
  m_EulerEditorCurves: []
  m_HasGenericRootTransform: 0
  m_HasMotionFloatCurves: 0
  m_Events:
  - time: 0.5
    functionName: Attack
    data: 
    objectReferenceParameter: {fileID: 0}
    floatParameter: 0
    intParameter: 0
    messageOptions: 0
