%YAML 1.1
%TAG !u! tag:unity3d.com,2011:
--- !u!74 &7400000
AnimationClip:
  m_ObjectHideFlags: 0
  m_CorrespondingSourceObject: {fileID: 0}
  m_PrefabInstance: {fileID: 0}
  m_PrefabAsset: {fileID: 0}
  m_Name: Idle
  serializedVersion: 6
  m_Legacy: 0
  m_Compressed: 0
  m_UseHighQualityCurve: 1
  m_RotationCurves: []
  m_CompressedRotationCurves: []
  m_EulerCurves: []
  m_PositionCurves: []
  m_ScaleCurves: []
  m_FloatCurves: []
  m_PPtrCurves:
  - curve:
    - time: 0
      value: {fileID: -5219337101871392587, guid: bf4df7b2c9cda4c44b372e2b47a5cb8f, type: 3}
    - time: 0.05
      value: {fileID: 7138469259204825589, guid: bf4df7b2c9cda4c44b372e2b47a5cb8f, type: 3}
    - time: 0.083333336
      value: {fileID: -251011056151405229, guid: bf4df7b2c9cda4c44b372e2b47a5cb8f, type: 3}
    - time: 0.11666667
      value: {fileID: -6742546426324391505, guid: bf4df7b2c9cda4c44b372e2b47a5cb8f, type: 3}
    - time: 0.15
      value: {fileID: 7086164792522022567, guid: bf4df7b2c9cda4c44b372e2b47a5cb8f, type: 3}
    - time: 0.21666667
      value: {fileID: 294564659152521552, guid: bf4df7b2c9cda4c44b372e2b47a5cb8f, type: 3}
    - time: 0.26666668
      value: {fileID: 4984629828664391499, guid: bf4df7b2c9cda4c44b372e2b47a5cb8f, type: 3}
    - time: 0.31666666
      value: {fileID: 8243258920512019660, guid: bf4df7b2c9cda4c44b372e2b47a5cb8f, type: 3}
    - time: 0.38333333
      value: {fileID: -7776469396863904119, guid: bf4df7b2c9cda4c44b372e2b47a5cb8f, type: 3}
    - time: 0.41666666
      value: {fileID: -7399481704264648410, guid: bf4df7b2c9cda4c44b372e2b47a5cb8f, type: 3}
    - time: 0.48333332
      value: {fileID: -952279733747984055, guid: bf4df7b2c9cda4c44b372e2b47a5cb8f, type: 3}
    - time: 0.51666665
      value: {fileID: 4397096775800396760, guid: bf4df7b2c9cda4c44b372e2b47a5cb8f, type: 3}
    - time: 0.53333336
      value: {fileID: -6665604432362641111, guid: bf4df7b2c9cda4c44b372e2b47a5cb8f, type: 3}
    - time: 0.5833333
      value: {fileID: -296839413648762863, guid: bf4df7b2c9cda4c44b372e2b47a5cb8f, type: 3}
    - time: 0.65
      value: {fileID: -1448754199720442605, guid: bf4df7b2c9cda4c44b372e2b47a5cb8f, type: 3}
    - time: 0.6666667
      value: {fileID: -3580613960600014400, guid: bf4df7b2c9cda4c44b372e2b47a5cb8f, type: 3}
    attribute: m_Sprite
    path: 
    classID: 212
    script: {fileID: 0}
  m_SampleRate: 60
  m_WrapMode: 0
  m_Bounds:
    m_Center: {x: 0, y: 0, z: 0}
    m_Extent: {x: 0, y: 0, z: 0}
  m_ClipBindingConstant:
    genericBindings:
    - serializedVersion: 2
      path: 0
      attribute: 0
      script: {fileID: 0}
      typeID: 212
      customType: 23
      isPPtrCurve: 1
    pptrCurveMapping:
    - {fileID: -5219337101871392587, guid: bf4df7b2c9cda4c44b372e2b47a5cb8f, type: 3}
    - {fileID: 7138469259204825589, guid: bf4df7b2c9cda4c44b372e2b47a5cb8f, type: 3}
    - {fileID: -251011056151405229, guid: bf4df7b2c9cda4c44b372e2b47a5cb8f, type: 3}
    - {fileID: -6742546426324391505, guid: bf4df7b2c9cda4c44b372e2b47a5cb8f, type: 3}
    - {fileID: 7086164792522022567, guid: bf4df7b2c9cda4c44b372e2b47a5cb8f, type: 3}
    - {fileID: 294564659152521552, guid: bf4df7b2c9cda4c44b372e2b47a5cb8f, type: 3}
    - {fileID: 4984629828664391499, guid: bf4df7b2c9cda4c44b372e2b47a5cb8f, type: 3}
    - {fileID: 8243258920512019660, guid: bf4df7b2c9cda4c44b372e2b47a5cb8f, type: 3}
    - {fileID: -7776469396863904119, guid: bf4df7b2c9cda4c44b372e2b47a5cb8f, type: 3}
    - {fileID: -7399481704264648410, guid: bf4df7b2c9cda4c44b372e2b47a5cb8f, type: 3}
    - {fileID: -952279733747984055, guid: bf4df7b2c9cda4c44b372e2b47a5cb8f, type: 3}
    - {fileID: 4397096775800396760, guid: bf4df7b2c9cda4c44b372e2b47a5cb8f, type: 3}
    - {fileID: -6665604432362641111, guid: bf4df7b2c9cda4c44b372e2b47a5cb8f, type: 3}
    - {fileID: -296839413648762863, guid: bf4df7b2c9cda4c44b372e2b47a5cb8f, type: 3}
    - {fileID: -1448754199720442605, guid: bf4df7b2c9cda4c44b372e2b47a5cb8f, type: 3}
    - {fileID: -3580613960600014400, guid: bf4df7b2c9cda4c44b372e2b47a5cb8f, type: 3}
  m_AnimationClipSettings:
    serializedVersion: 2
    m_AdditiveReferencePoseClip: {fileID: 0}
    m_AdditiveReferencePoseTime: 0
    m_StartTime: 0
    m_StopTime: 0.68333334
    m_OrientationOffsetY: 0
    m_Level: 0
    m_CycleOffset: 0
    m_HasAdditiveReferencePose: 0
    m_LoopTime: 1
    m_LoopBlend: 0
    m_LoopBlendOrientation: 0
    m_LoopBlendPositionY: 0
    m_LoopBlendPositionXZ: 0
    m_KeepOriginalOrientation: 0
    m_KeepOriginalPositionY: 1
    m_KeepOriginalPositionXZ: 0
    m_HeightFromFeet: 0
    m_Mirror: 0
  m_EditorCurves: []
  m_EulerEditorCurves: []
  m_HasGenericRootTransform: 0
  m_HasMotionFloatCurves: 0
  m_Events: []
